…
# exact CI
proc_timer <- proc.time()

df_exact <- df_methods %>% 
  filter(method == "Exact") %>% 
  rowwise() %>% 
  mutate(CIs = list(get_CIs(n, lambda, correct_dist, CI_exact))) %>% 
  unnest_wider(CIs) %>% 
  # move df_CIs to the last 
  select(-df_CIs, df_CIs) %>% 
  print()
```

    ## # A tibble: 24 × 11
    ##    rowID method correct_dist lambda     n coverage_rate undershoot_rate
    ##    <int> <chr>  <lgl>         <dbl> <dbl>         <dbl>           <dbl>
    ##  1     1 Exact  TRUE            0.5    10         0.95            0.024
    ##  2     2 Exact  TRUE            0.5    30         0.939           0.031
    ##  3     3 Exact  TRUE            0.5   100         0.957           0.025
    ##  4     4 Exact  TRUE            0.5   500         0.945           0.028
    ##  5     5 Exact  TRUE            1      10         0.95            0.024
    ##  6     6 Exact  TRUE            1      30         0.939           0.031
    ##  7     7 Exact  TRUE            1     100         0.957           0.025
    ##  8     8 Exact  TRUE            1     500         0.945           0.028
    ##  9     9 Exact  TRUE            5      10         0.95            0.024
    ## 10    10 Exact  TRUE            5      30         0.939           0.031
    ## # ℹ 14 more rows
    ## # ℹ 4 more variables: overshoot_rate <dbl>, avg_length <dbl>,
    ## #   sd_avg_length <dbl>, df_CIs <list>
…
# large-sample delta normality CI
proc_timer <- proc.time()

df_delta <- df_methods %>% 
  filter(method == "Delta_Normality") %>% 
  rowwise() %>% 
  mutate(CIs = list(get_CIs(n, lambda, correct_dist, CI_delta))) %>% 
  unnest_wider(CIs) %>% 
  # move df_CIs to the last 
  select(-df_CIs, df_CIs) %>% 
  print()
```

    ## # A tibble: 24 × 11
    ##    rowID method          correct_dist lambda     n coverage_rate undershoot_rate
    ##    <int> <chr>           <lgl>         <dbl> <dbl>         <dbl>           <dbl>
    ##  1    25 Delta_Normality TRUE            0.5    10         0.943           0.046
    ##  2    26 Delta_Normality TRUE            0.5    30         0.942           0.039
    ##  3    27 Delta_Normality TRUE            0.5   100         0.956           0.03 
    ##  4    28 Delta_Normality TRUE            0.5   500         0.947           0.03 
    ##  5    29 Delta_Normality TRUE            1      10         0.943           0.046
    ##  6    30 Delta_Normality TRUE            1      30         0.942           0.039
    ##  7    31 Delta_Normality TRUE            1     100         0.956           0.03 
    ##  8    32 Delta_Normality TRUE            1     500         0.947           0.03 
    ##  9    33 Delta_Normality TRUE            5      10         0.943           0.046
    ## 10    34 Delta_Normality TRUE            5      30         0.942           0.039
    ## # ℹ 14 more rows
    ## # ℹ 4 more variables: overshoot_rate <dbl>, avg_length <dbl>,
    ## #   sd_avg_length <dbl>, df_CIs <list>
…
# raw % non-parametric bootstrap
proc_timer <- proc.time()

df_raw_np <- df_methods %>% 
  filter(method == "Raw_Nonparametric") %>% 
  rowwise() %>% 
  mutate(CIs = list(get_CIs(n, lambda, correct_dist, CI_raw_np))) %>% 
  unnest_wider(CIs) %>% 
  # move df_CIs to the last 
  select(-df_CIs, df_CIs) %>% 
  print()
```

    ## # A tibble: 24 × 11
    ##    rowID method          correct_dist lambda     n coverage_rate undershoot_rate
    ##    <int> <chr>           <lgl>         <dbl> <dbl>         <dbl>           <dbl>
    ##  1    49 Raw_Nonparamet… TRUE            0.5    10         0.862           0.012
    ##  2    50 Raw_Nonparamet… TRUE            0.5    30         0.918           0.016
    ##  3    51 Raw_Nonparamet… TRUE            0.5   100         0.936           0.016
    ##  4    52 Raw_Nonparamet… TRUE            0.5   500         0.946           0.02 
    ##  5    53 Raw_Nonparamet… TRUE            1      10         0.862           0.012
    ##  6    54 Raw_Nonparamet… TRUE            1      30         0.918           0.016
    ##  7    55 Raw_Nonparamet… TRUE            1     100         0.936           0.016
    ##  8    56 Raw_Nonparamet… TRUE            1     500         0.946           0.02 
    ##  9    57 Raw_Nonparamet… TRUE            5      10         0.862           0.012
    ## 10    58 Raw_Nonparamet… TRUE            5      30         0.918           0.016
    ## # ℹ 14 more rows
    ## # ℹ 4 more variables: overshoot_rate <dbl>, avg_length <dbl>,
    ## #   sd_avg_length <dbl>, df_CIs <list>
…
# raw % parametric bootstrap
proc_timer <- proc.time()

df_raw_par <- df_methods %>% 
  filter(method == "Raw_Parametric") %>% 
  rowwise() %>% 
  mutate(CIs = list(get_CIs(n, lambda, correct_dist, CI_raw_par))) %>% 
  unnest_wider(CIs) %>% 
  # move df_CIs to the last 
  select(-df_CIs, df_CIs) %>% 
  print()
```

    ## # A tibble: 24 × 11
    ##    rowID method         correct_dist lambda     n coverage_rate undershoot_rate
    ##    <int> <chr>          <lgl>         <dbl> <dbl>         <dbl>           <dbl>
    ##  1    73 Raw_Parametric TRUE            0.5    10         0.922           0.005
    ##  2    74 Raw_Parametric TRUE            0.5    30         0.938           0.011
    ##  3    75 Raw_Parametric TRUE            0.5   100         0.944           0.024
    ##  4    76 Raw_Parametric TRUE            0.5   500         0.943           0.02 
    ##  5    77 Raw_Parametric TRUE            1      10         0.922           0.005
    ##  6    78 Raw_Parametric TRUE            1      30         0.938           0.011
    ##  7    79 Raw_Parametric TRUE            1     100         0.944           0.024
    ##  8    80 Raw_Parametric TRUE            1     500         0.943           0.02 
    ##  9    81 Raw_Parametric TRUE            5      10         0.922           0.005
    ## 10    82 Raw_Parametric TRUE            5      30         0.938           0.011
    ## # ℹ 14 more rows
    ## # ℹ 4 more variables: overshoot_rate <dbl>, avg_length <dbl>,
    ## #   sd_avg_length <dbl>, df_CIs <list>
…
# reflected % non-parametric bootstrap
proc_timer <- proc.time()

df_reflected <- df_methods %>% 
  filter(method == "Reflected") %>% 
  rowwise() %>% 
  mutate(CIs = list(get_CIs(n, lambda, correct_dist, CI_reflected))) %>% 
  unnest_wider(CIs) %>% 
  # move df_CIs to the last 
  select(-df_CIs, df_CIs) %>% 
  print()
```

    ## # A tibble: 24 × 11
    ##    rowID method    correct_dist lambda     n coverage_rate undershoot_rate
    ##    <int> <chr>     <lgl>         <dbl> <dbl>         <dbl>           <dbl>
    ##  1    97 Reflected TRUE            0.5    10         0.866           0.128
    ##  2    98 Reflected TRUE            0.5    30         0.905           0.09 
    ##  3    99 Reflected TRUE            0.5   100         0.933           0.056
    ##  4   100 Reflected TRUE            0.5   500         0.945           0.032
    ##  5   101 Reflected TRUE            1      10         0.866           0.128
    ##  6   102 Reflected TRUE            1      30         0.905           0.09 
    ##  7   103 Reflected TRUE            1     100         0.933           0.056
    ##  8   104 Reflected TRUE            1     500         0.945           0.032
    ##  9   105 Reflected TRUE            5      10         0.866           0.128
    ## 10   106 Reflected TRUE            5      30         0.905           0.09 
    ## # ℹ 14 more rows
    ## # ℹ 4 more variables: overshoot_rate <dbl>, avg_length <dbl>,
    ## #   sd_avg_length <dbl>, df_CIs <list>
…
# bootstrap t
proc_timer <- proc.time()

df_bootstrap_t <- df_methods %>% 
  filter(method == "Bootstrape_t") %>% 
  rowwise() %>% 
  mutate(CIs = list(get_CIs(n, lambda, correct_dist, CI_bootstrap_t))) %>% 
  unnest_wider(CIs) %>% 
  # move df_CIs to the last 
  select(-df_CIs, df_CIs) %>% 
  print()
```

    ## # A tibble: 24 × 11
    ##    rowID method       correct_dist lambda     n coverage_rate undershoot_rate
    ##    <int> <chr>        <lgl>         <dbl> <dbl>         <dbl>           <dbl>
    ##  1   121 Bootstrape_t TRUE            0.5    10         0.838           0.162
    ##  2   122 Bootstrape_t TRUE            0.5    30         0.901           0.098
    ##  3   123 Bootstrape_t TRUE            0.5   100         0.934           0.055
    ##  4   124 Bootstrape_t TRUE            0.5   500         0.95            0.03 
    ##  5   125 Bootstrape_t TRUE            1      10         0.838           0.162
    ##  6   126 Bootstrape_t TRUE            1      30         0.901           0.098
    ##  7   127 Bootstrape_t TRUE            1     100         0.934           0.055
    ##  8   128 Bootstrape_t TRUE            1     500         0.95            0.03 
    ##  9   129 Bootstrape_t TRUE            5      10         0.838           0.162
    ## 10   130 Bootstrape_t TRUE            5      30         0.901           0.098
    ## # ℹ 14 more rows
    ## # ℹ 4 more variables: overshoot_rate <dbl>, avg_length <dbl>,
    ## #   sd_avg_length <dbl>, df_CIs <list>
…
# combine all results
df_all <- bind_rows(df_exact, df_delta, df_raw_np, df_raw_par, df_reflected, df_bootstrap_t) %>% 
  select(-rowID, -df_CIs) %>% 
  mutate(
    method = fct_relevel(method, methods)
  ) %>% 
  print()
```

    ## # A tibble: 144 × 9
    ##    method correct_dist lambda     n coverage_rate undershoot_rate overshoot_rate
    ##    <fct>  <lgl>         <dbl> <dbl>         <dbl>           <dbl>          <dbl>
    ##  1 Exact  TRUE            0.5    10         0.95            0.024          0.026
    ##  2 Exact  TRUE            0.5    30         0.939           0.031          0.03 
    ##  3 Exact  TRUE            0.5   100         0.957           0.025          0.018
    ##  4 Exact  TRUE            0.5   500         0.945           0.028          0.027
    ##  5 Exact  TRUE            1      10         0.95            0.024          0.026
    ##  6 Exact  TRUE            1      30         0.939           0.031          0.03 
    ##  7 Exact  TRUE            1     100         0.957           0.025          0.018
    ##  8 Exact  TRUE            1     500         0.945           0.028          0.027
    ##  9 Exact  TRUE            5      10         0.95            0.024          0.026
    ## 10 Exact  TRUE            5      30         0.939           0.031          0.03 
    ## # ℹ 134 more rows
    ## # ℹ 2 more variables: avg_length <dbl>, sd_avg_length <dbl>
…
